{
	"points": [
		[169.422,93.6915],
		[172.277,114.687],
		[177.205,134.598],
		[182.815,152.8],
		[191.131,170.626],
		[203.689,187.186],
		[219.721,203.107],
		[237.903,217.519],
		[257.689,222.78],
		[276.047,219.611],
		[293.301,207.346],
		[310.015,192.346],
		[325.571,174.871],
		[336.242,154.654],
		[342.943,132.249],
		[347.763,109.412],
		[350.316,85.9015],
		[177.076,80.2601],
		[190.837,76.2973],
		[209.175,79.2494],
		[227.083,84.9251],
		[243.374,92.4943],
		[272.202,91.5799],
		[289.71,83.0548],
		[307.385,77.1545],
		[325.405,75.2516],
		[339.636,79.6946],
		[258.285,103.714],
		[258.909,119.716],
		[259.394,135.89],
		[259.932,152.295],
		[241.708,156.821],
		[250.682,160.582],
		[259.863,162.719],
		[269.068,159.549],
		[277.682,156.047],
		[198.218,94.4462],
		[208.973,89.772],
		[222.563,90.3894],
		[233.781,99.0314],
		[222.417,101.271],
		[208.886,100.805],
		[284.497,99.2873],
		[294.87,89.7483],
		[307.873,89.0609],
		[318.573,93.2741],
		[309.206,99.8235],
		[296.409,100.923],
		[230.296,182.769],
		[242.542,180.48],
		[253.629,177.966],
		[261.617,180.248],
		[270.463,177.751],
		[281.975,179.502],
		[293.07,181.5],
		[283.397,191.609],
		[272.839,197.501],
		[263.166,198.38],
		[254.175,197.49],
		[242.86,192.486],
		[236.676,183.902],
		[253.472,184.75],
		[261.731,185.666],
		[270.764,184.712],
		[287.472,182.54],
		[271.241,185.065],
		[262.102,185.94],
		[253.722,184.576]
	]
}
